PCBNEW-LibModule-V1  Ср 13 ноя 2013 19:35:26
# encoding utf-8
$INDEX
pin_array_10x2
$EndINDEX
$MODULE pin_array_10x2
Po 0 0 0 15 52837FB1 52837F8A ~~
Li pin_array_10x2
Cd Double rangee de contacts 2 x 10 pins
Kw CONN
Sc 52837F8A
AR 
Op 0 0 0
T0 0 -1500 400 400 0 100 N V 21 N "PIN_ARRAY_10X2"
T1 0 1500 400 400 0 80 N V 21 N "Val**"
DS -5000 -1000 5000 -1000 150 21
DS 5000 -1000 5000 1000 150 21
DS 5000 1000 -5000 1000 150 21
DS -5000 -1000 -5000 1000 150 21
$PAD
Sh "1" R 600 600 0 0 0
Dr 320 0 0
At STD N 00E0FFFF
Ne 0 ""
Po -4500 500
$EndPAD
$PAD
Sh "2" C 600 600 0 0 0
Dr 400 0 0
At STD N 00E0FFFF
Ne 0 ""
Po -4500 -500
$EndPAD
$PAD
Sh "3" C 600 600 0 0 0
Dr 400 0 0
At STD N 00E0FFFF
Ne 0 ""
Po -3500 500
$EndPAD
$PAD
Sh "4" C 600 600 0 0 0
Dr 400 0 0
At STD N 00E0FFFF
Ne 0 ""
Po -3500 -500
$EndPAD
$PAD
Sh "5" C 600 600 0 0 0
Dr 400 0 0
At STD N 00E0FFFF
Ne 0 ""
Po -2500 500
$EndPAD
$PAD
Sh "6" C 600 600 0 0 0
Dr 400 0 0
At STD N 00E0FFFF
Ne 0 ""
Po -2500 -500
$EndPAD
$PAD
Sh "7" C 600 600 0 0 0
Dr 400 0 0
At STD N 00E0FFFF
Ne 0 ""
Po -1500 500
$EndPAD
$PAD
Sh "8" C 600 600 0 0 0
Dr 400 0 0
At STD N 00E0FFFF
Ne 0 ""
Po -1500 -500
$EndPAD
$PAD
Sh "9" C 600 600 0 0 0
Dr 400 0 0
At STD N 00E0FFFF
Ne 0 ""
Po -500 500
$EndPAD
$PAD
Sh "10" C 600 600 0 0 0
Dr 400 0 0
At STD N 00E0FFFF
Ne 0 ""
Po -500 -500
$EndPAD
$PAD
Sh "11" C 600 600 0 0 0
Dr 400 0 0
At STD N 00E0FFFF
Ne 0 ""
Po 500 500
$EndPAD
$PAD
Sh "12" C 600 600 0 0 0
Dr 400 0 0
At STD N 00E0FFFF
Ne 0 ""
Po 500 -500
$EndPAD
$PAD
Sh "13" C 600 600 0 0 0
Dr 400 0 0
At STD N 00E0FFFF
Ne 0 ""
Po 1500 500
$EndPAD
$PAD
Sh "14" C 600 600 0 0 0
Dr 400 0 0
At STD N 00E0FFFF
Ne 0 ""
Po 1500 -500
$EndPAD
$PAD
Sh "15" C 600 600 0 0 0
Dr 400 0 0
At STD N 00E0FFFF
Ne 0 ""
Po 2500 500
$EndPAD
$PAD
Sh "16" C 600 600 0 0 0
Dr 400 0 0
At STD N 00E0FFFF
Ne 0 ""
Po 2500 -500
$EndPAD
$PAD
Sh "17" C 600 600 0 0 0
Dr 400 0 0
At STD N 00E0FFFF
Ne 0 ""
Po 3500 500
$EndPAD
$PAD
Sh "18" C 600 600 0 0 0
Dr 400 0 0
At STD N 00E0FFFF
Ne 0 ""
Po 3500 -500
$EndPAD
$PAD
Sh "19" C 600 600 0 0 0
Dr 400 0 0
At STD N 00E0FFFF
Ne 0 ""
Po 4500 500
$EndPAD
$PAD
Sh "20" C 600 600 0 0 0
Dr 400 0 0
At STD N 00E0FFFF
Ne 0 ""
Po 4500 -500
$EndPAD
$SHAPE3D
Na "pin_array/pins_array_12x2.wrl"
Sc 1.000000 1.000000 1.000000
Of 0.000000 0.000000 0.000000
Ro 0.000000 0.000000 0.000000
$EndSHAPE3D
$EndMODULE  pin_array_10x2
$EndLIBRARY
