EESchema Schematic File Version 2  date Ср 27 ноя 2013 21:49:32
LIBS:power
LIBS:device
LIBS:transistors
LIBS:conn
LIBS:linear
LIBS:regul
LIBS:74xx
LIBS:cmos4000
LIBS:adc-dac
LIBS:memory
LIBS:xilinx
LIBS:special
LIBS:microcontrollers
LIBS:dsp
LIBS:microchip
LIBS:analog_switches
LIBS:motorola
LIBS:texas
LIBS:intel
LIBS:audio
LIBS:interface
LIBS:digital-audio
LIBS:philips
LIBS:display
LIBS:cypress
LIBS:siliconi
LIBS:opto
LIBS:atmel
LIBS:contrib
LIBS:valves
LIBS:stm32
LIBS:comm
LIBS:project-cache
EELAYER 25  0
EELAYER END
$Descr A4 11700 8267
encoding utf-8
Sheet 1 1
Title ""
Date "27 nov 2013"
Rev ""
Comp ""
Comment1 ""
Comment2 ""
Comment3 ""
Comment4 ""
$EndDescr
Wire Wire Line
	2000 4500 2000 4600
Connection ~ 9400 4400
Wire Wire Line
	9400 4500 9400 4400
Wire Wire Line
	8900 5900 9200 5900
Wire Wire Line
	8900 5700 9200 5700
Wire Wire Line
	8600 3850 8600 3750
Wire Wire Line
	8600 3750 8700 3750
Wire Wire Line
	9500 4200 9050 4200
Wire Wire Line
	9500 3850 9500 3300
Wire Wire Line
	8700 4600 8700 4400
Wire Wire Line
	9600 4500 9600 4150
Wire Bus Line
	10300 5400 4100 5400
Wire Wire Line
	8300 4400 8800 4400
Wire Wire Line
	9700 3950 9500 3950
Wire Wire Line
	9050 4200 9050 4100
Wire Wire Line
	9500 3850 9700 3850
Connection ~ 9050 3300
Wire Wire Line
	9050 3400 9050 3300
Wire Wire Line
	8700 2400 8000 2400
Connection ~ 9600 4400
Wire Wire Line
	9600 4150 9700 4150
Connection ~ 8400 4500
Wire Wire Line
	8300 4500 8400 4500
Wire Wire Line
	8400 4150 8400 4600
Wire Wire Line
	8400 6300 8700 6300
Wire Wire Line
	8400 6100 8700 6100
Wire Wire Line
	8400 5900 8700 5900
Wire Wire Line
	8400 5700 8700 5700
Wire Wire Line
	8400 5800 8700 5800
Wire Wire Line
	8400 6000 8700 6000
Wire Wire Line
	8400 6200 8700 6200
Wire Wire Line
	8400 6400 8700 6400
Wire Wire Line
	7300 6400 7600 6400
Wire Wire Line
	7600 6000 7300 6000
Wire Wire Line
	7600 5800 7300 5800
Wire Wire Line
	7300 5700 7600 5700
Wire Wire Line
	7600 5900 7300 5900
Wire Wire Line
	7600 6100 7300 6100
Wire Wire Line
	7300 6200 7600 6200
Wire Wire Line
	7300 6300 7600 6300
Wire Bus Line
	7200 6300 7200 5400
Wire Wire Line
	5700 6300 6000 6300
Wire Wire Line
	5700 6100 6000 6100
Wire Wire Line
	5700 5900 6000 5900
Wire Wire Line
	5700 5700 6000 5700
Wire Wire Line
	5200 6300 5500 6300
Wire Wire Line
	5200 6100 5500 6100
Wire Wire Line
	5200 5900 5500 5900
Wire Bus Line
	5600 5400 5600 6300
Wire Wire Line
	4100 6300 4400 6300
Wire Wire Line
	4100 6200 4400 6200
Wire Wire Line
	4400 6100 4100 6100
Wire Wire Line
	4400 5900 4100 5900
Wire Wire Line
	4100 5700 4400 5700
Wire Bus Line
	4000 6300 4000 5500
Wire Bus Line
	10400 5300 10400 800 
Connection ~ 2700 5900
Wire Wire Line
	3000 6000 3000 5900
Wire Wire Line
	3000 5900 2200 5900
Connection ~ 2850 6500
Wire Wire Line
	2850 6600 2850 6500
Connection ~ 2500 5900
Wire Wire Line
	2500 5800 2500 6500
Connection ~ 1100 6500
Wire Wire Line
	1200 6500 800  6500
Wire Wire Line
	2500 6500 2400 6500
Connection ~ 950  6500
Wire Wire Line
	950  6600 950  6500
Connection ~ 1800 6500
Connection ~ 800  5900
Wire Wire Line
	800  6000 800  5800
Wire Wire Line
	1100 6000 1100 5900
Wire Wire Line
	7300 4400 7500 4400
Connection ~ 8550 5100
Wire Wire Line
	8550 5200 8550 5100
Wire Wire Line
	800  4300 1200 4300
Wire Wire Line
	3200 3700 2900 3700
Wire Wire Line
	7300 2300 8700 2300
Wire Wire Line
	7300 2000 8700 2000
Wire Wire Line
	7300 1800 8700 1800
Wire Wire Line
	8000 3300 8000 3100
Wire Wire Line
	8200 3100 8200 3200
Wire Wire Line
	8200 3200 7800 3200
Wire Wire Line
	7800 3200 7800 3100
Wire Wire Line
	8000 2400 8000 2600
Wire Wire Line
	8000 1100 8000 900 
Connection ~ 7800 2000
Wire Wire Line
	7800 1600 7800 2000
Connection ~ 8200 1800
Wire Wire Line
	8200 1600 8200 1800
Connection ~ 8200 1000
Wire Wire Line
	8200 1000 8200 1100
Connection ~ 7800 1000
Wire Wire Line
	7800 1100 7800 1000
Connection ~ 9900 1800
Wire Wire Line
	9900 1800 9800 1800
Connection ~ 9900 2000
Wire Wire Line
	9900 2000 9800 2000
Connection ~ 9900 2200
Wire Wire Line
	9900 2200 9800 2200
Connection ~ 9900 2400
Wire Wire Line
	9900 2400 9800 2400
Wire Wire Line
	9900 2600 9900 1700
Wire Wire Line
	9900 1700 9800 1700
Wire Wire Line
	9800 1600 9900 1600
Wire Wire Line
	9900 1300 8600 1300
Wire Wire Line
	8600 1300 8600 1600
Wire Wire Line
	8600 1600 8700 1600
Wire Wire Line
	3500 1100 3400 1100
Wire Wire Line
	3500 1300 3500 1200
Wire Wire Line
	3500 1200 3400 1200
Wire Bus Line
	7200 800  7200 4700
Wire Wire Line
	7100 3700 6800 3700
Wire Wire Line
	7100 3900 6800 3900
Wire Wire Line
	6800 4100 7100 4100
Wire Wire Line
	6800 4300 7100 4300
Wire Wire Line
	6800 4600 7100 4600
Wire Wire Line
	6800 4800 7100 4800
Wire Wire Line
	6800 3500 7100 3500
Wire Wire Line
	6800 3100 7100 3100
Wire Wire Line
	6800 2900 7100 2900
Wire Wire Line
	6800 2700 7100 2700
Wire Wire Line
	6800 2500 7100 2500
Wire Wire Line
	6800 2300 7100 2300
Wire Wire Line
	6800 2100 7100 2100
Wire Wire Line
	6800 1900 7100 1900
Wire Bus Line
	7100 700  2900 700 
Wire Wire Line
	2700 1100 2350 1100
Connection ~ 1350 1400
Wire Wire Line
	1550 1100 1350 1100
Wire Wire Line
	1350 1100 1350 1700
Wire Wire Line
	1350 1700 1450 1700
Wire Wire Line
	1350 1400 1200 1400
Wire Wire Line
	1200 1400 1200 1500
Wire Wire Line
	2300 1900 2300 2000
Wire Wire Line
	2300 2000 1200 2000
Wire Wire Line
	1200 2000 1200 1900
Wire Wire Line
	3200 3300 2900 3300
Wire Wire Line
	1550 2400 1450 2400
Wire Wire Line
	1450 2400 1450 2600
Wire Wire Line
	1450 2600 2150 2600
Wire Wire Line
	2150 2600 2150 3100
Wire Wire Line
	3200 1600 2900 1600
Wire Wire Line
	3200 1800 2900 1800
Wire Wire Line
	3200 2000 2900 2000
Wire Wire Line
	3200 2200 2900 2200
Wire Wire Line
	3200 2400 2900 2400
Wire Wire Line
	3200 2600 2900 2600
Wire Wire Line
	3200 2800 2900 2800
Wire Wire Line
	3200 3000 2900 3000
Wire Wire Line
	3200 3500 2900 3500
Connection ~ 1750 3400
Wire Wire Line
	1750 3500 1750 3400
Connection ~ 2150 2800
Wire Wire Line
	2300 2900 2300 2800
Wire Wire Line
	2300 2800 2000 2800
Wire Wire Line
	2150 3100 2050 3100
Wire Wire Line
	800  3100 800  3000
Connection ~ 800  3700
Wire Wire Line
	800  3800 800  3600
Wire Wire Line
	1200 4300 1200 4100
Connection ~ 1650 4800
Wire Wire Line
	1650 4800 1350 4800
Wire Wire Line
	3200 4000 1650 4000
Wire Wire Line
	2700 4400 3200 4400
Connection ~ 1500 4800
Connection ~ 1500 5400
Wire Wire Line
	1500 5500 1500 5400
Wire Wire Line
	2900 4900 2900 4200
Connection ~ 2900 4400
Connection ~ 2450 4800
Wire Wire Line
	2450 4800 2450 4700
Connection ~ 2300 5400
Wire Wire Line
	2000 5300 2000 5400
Wire Wire Line
	2000 5400 2900 5400
Wire Wire Line
	2600 5300 2600 5400
Wire Wire Line
	2900 5400 2900 5300
Connection ~ 2600 4800
Wire Wire Line
	2300 4900 2300 4800
Connection ~ 3100 4700
Connection ~ 3100 4300
Wire Wire Line
	3100 4500 3200 4500
Connection ~ 2900 4600
Wire Wire Line
	3200 4100 3100 4100
Wire Wire Line
	3100 4300 3200 4300
Wire Wire Line
	3100 4700 3200 4700
Connection ~ 3100 4500
Wire Wire Line
	3200 3900 3100 3900
Wire Wire Line
	3100 3900 3100 4900
Connection ~ 3100 4100
Wire Wire Line
	2600 4800 2600 4900
Connection ~ 2900 4800
Wire Wire Line
	2000 4900 2000 4800
Connection ~ 2300 4800
Wire Wire Line
	2300 5400 2300 5300
Connection ~ 2600 5400
Wire Wire Line
	2450 5400 2450 5500
Connection ~ 2450 5400
Connection ~ 2900 4800
Wire Wire Line
	2700 4200 2800 4200
Wire Wire Line
	2800 4200 2800 3800
Wire Wire Line
	1650 4000 1650 4900
Wire Wire Line
	1650 5300 1650 5400
Wire Wire Line
	1650 5400 1350 5400
Wire Wire Line
	1350 5400 1350 5300
Wire Wire Line
	1500 4700 1500 4800
Wire Wire Line
	1500 3900 1500 4000
Wire Wire Line
	2900 4200 3200 4200
Wire Wire Line
	2900 4600 3200 4600
Wire Wire Line
	2000 4800 3200 4800
Wire Wire Line
	1350 4800 1350 4900
Wire Wire Line
	1000 3900 1000 3700
Wire Wire Line
	800  4200 800  4400
Connection ~ 800  4300
Wire Wire Line
	1450 3100 1350 3100
Wire Wire Line
	1200 2900 1200 2800
Wire Wire Line
	1200 2800 1500 2800
Connection ~ 1350 2800
Wire Wire Line
	1200 3300 1200 3400
Wire Wire Line
	1200 3400 2300 3400
Wire Wire Line
	2300 3400 2300 3300
Wire Wire Line
	3200 3600 2900 3600
Wire Wire Line
	3200 3100 2900 3100
Wire Wire Line
	3200 2900 2900 2900
Wire Wire Line
	3200 2700 2900 2700
Wire Wire Line
	3200 2500 2900 2500
Wire Wire Line
	3200 2300 2900 2300
Wire Wire Line
	3200 2100 2900 2100
Wire Wire Line
	3200 1900 2900 1900
Wire Wire Line
	3200 1700 2900 1700
Wire Wire Line
	1350 3100 1350 2300
Wire Wire Line
	1350 2300 1550 2300
Wire Wire Line
	2350 2300 2700 2300
Wire Wire Line
	2350 2400 2700 2400
Wire Wire Line
	3200 3400 2900 3400
Wire Wire Line
	1750 2100 1750 2000
Connection ~ 1750 2000
Wire Wire Line
	2300 1500 2300 1400
Wire Wire Line
	2150 1400 2150 1700
Wire Wire Line
	2150 1700 2050 1700
Wire Wire Line
	2300 1400 1450 1400
Wire Wire Line
	1450 1400 1450 1200
Wire Wire Line
	1450 1200 1550 1200
Connection ~ 2150 1400
Wire Wire Line
	2700 1200 2350 1200
Wire Wire Line
	6800 1600 7100 1600
Wire Wire Line
	6800 1700 7100 1700
Wire Wire Line
	6800 1800 7100 1800
Wire Wire Line
	6800 2000 7100 2000
Wire Wire Line
	6800 2200 7100 2200
Wire Wire Line
	6800 2400 7100 2400
Wire Wire Line
	6800 2600 7100 2600
Wire Wire Line
	6800 2800 7100 2800
Wire Wire Line
	7100 3000 6800 3000
Wire Wire Line
	6800 3300 7100 3300
Wire Wire Line
	6800 3400 7100 3400
Wire Wire Line
	6800 3600 7100 3600
Wire Wire Line
	6800 4700 7100 4700
Wire Wire Line
	6800 4500 7100 4500
Wire Wire Line
	6800 4400 7100 4400
Wire Wire Line
	7100 4200 6800 4200
Wire Wire Line
	6800 4000 7100 4000
Wire Wire Line
	6800 3800 7100 3800
Wire Wire Line
	3400 1000 3500 1000
Wire Wire Line
	3500 1000 3500 900 
Wire Wire Line
	4000 1100 4100 1100
Wire Wire Line
	4100 1100 4100 800 
Wire Wire Line
	5400 800  5400 1100
Wire Wire Line
	5400 1100 5300 1100
Wire Wire Line
	4800 900  4800 1000
Wire Wire Line
	4800 1000 4700 1000
Wire Wire Line
	4700 1200 4800 1200
Wire Wire Line
	4800 1200 4800 1300
Wire Wire Line
	4800 1100 4700 1100
Wire Wire Line
	9900 1600 9900 900 
Connection ~ 9900 1300
Wire Wire Line
	9900 2500 9800 2500
Connection ~ 9900 2500
Wire Wire Line
	9900 2300 9800 2300
Connection ~ 9900 2300
Wire Wire Line
	9900 2100 9800 2100
Connection ~ 9900 2100
Wire Wire Line
	9900 1900 9800 1900
Connection ~ 9900 1900
Wire Wire Line
	7600 1100 7600 1000
Wire Wire Line
	7600 1000 8400 1000
Wire Wire Line
	8400 1000 8400 1100
Connection ~ 8000 1000
Wire Wire Line
	8400 1600 8400 1700
Connection ~ 8400 1700
Wire Wire Line
	8000 1600 8000 1900
Connection ~ 8000 1900
Wire Wire Line
	7600 1600 7600 2200
Connection ~ 7600 2200
Wire Wire Line
	8200 2600 8200 2500
Wire Wire Line
	7800 2600 7800 2100
Connection ~ 8000 3200
Wire Wire Line
	7300 1700 8700 1700
Wire Wire Line
	7300 1900 8700 1900
Wire Wire Line
	7300 2200 8700 2200
Wire Bus Line
	2800 3600 2800 800 
Connection ~ 1000 3700
Wire Wire Line
	8400 5000 8400 5100
Wire Wire Line
	8400 5100 8700 5100
Wire Wire Line
	8700 5100 8700 5000
Wire Wire Line
	7300 4500 7500 4500
Connection ~ 1100 5900
Wire Wire Line
	1800 6400 1800 6500
Wire Wire Line
	800  6500 800  6400
Wire Wire Line
	1100 6500 1100 6400
Wire Wire Line
	1900 6500 1700 6500
Wire Wire Line
	800  5900 1400 5900
Wire Wire Line
	2700 6400 2700 6500
Wire Wire Line
	2700 6500 3000 6500
Wire Wire Line
	3000 6500 3000 6400
Wire Wire Line
	2700 5900 2700 6000
Wire Wire Line
	800  3700 2700 3700
Wire Wire Line
	4400 5800 4100 5800
Wire Wire Line
	4400 6000 4100 6000
Wire Wire Line
	4100 6400 4400 6400
Wire Wire Line
	5200 5700 5500 5700
Wire Wire Line
	5200 5800 5500 5800
Wire Wire Line
	5200 6000 5500 6000
Wire Wire Line
	5200 6200 5500 6200
Wire Wire Line
	5200 6400 5500 6400
Wire Wire Line
	5700 5800 6000 5800
Wire Wire Line
	5700 6000 6000 6000
Wire Wire Line
	5700 6200 6000 6200
Wire Wire Line
	5700 6400 6000 6400
Wire Wire Line
	6800 6400 7100 6400
Wire Wire Line
	6800 6200 7100 6200
Wire Wire Line
	6800 6000 7100 6000
Wire Wire Line
	6800 5800 7100 5800
Wire Wire Line
	6800 5700 7100 5700
Wire Wire Line
	6800 5900 7100 5900
Wire Wire Line
	6800 6100 7100 6100
Wire Wire Line
	6800 6300 7100 6300
Wire Bus Line
	8800 5400 8800 6300
Connection ~ 8700 4400
Wire Wire Line
	9600 3650 9600 3750
Connection ~ 9600 3750
Wire Wire Line
	9600 4400 9900 4400
Wire Wire Line
	8200 2500 8700 2500
Wire Wire Line
	7800 2100 8700 2100
Wire Wire Line
	9500 3950 9500 4400
Connection ~ 9500 4200
Wire Bus Line
	10300 700  7300 700 
Wire Wire Line
	9900 4400 9900 4300
Wire Wire Line
	8400 3650 8400 3300
Wire Wire Line
	8400 3300 9500 3300
Wire Wire Line
	9400 3750 9700 3750
Wire Wire Line
	9500 4400 9300 4400
Wire Wire Line
	8900 5800 9200 5800
Wire Wire Line
	9400 5000 9400 5100
Wire Wire Line
	9400 5100 9200 5100
Wire Wire Line
	9200 5100 9200 5000
Wire Wire Line
	3200 3800 2000 3800
Wire Wire Line
	2000 3800 2000 3900
Connection ~ 2800 3800
$Comp
L GND #PWR01
U 1 1 52937D8E
P 2000 4600
F 0 "#PWR01" H 2000 4600 30  0001 C CNN
F 1 "GND" H 2000 4530 30  0001 C CNN
	1    2000 4600
	1    0    0    -1  
$EndComp
$Comp
L BATTERY BT1
U 1 1 52937D47
P 2000 4200
F 0 "BT1" H 2000 4400 50  0000 C CNN
F 1 "3V3" H 2000 4010 50  0000 C CNN
	1    2000 4200
	0    -1   1    0   
$EndComp
$Comp
L VDD #PWR02
U 1 1 528F22B4
P 9200 5000
F 0 "#PWR02" H 9200 5100 30  0001 C CNN
F 1 "VDD" H 9200 5110 30  0000 C CNN
	1    9200 5000
	1    0    0    -1  
$EndComp
$Comp
L R R17
U 1 1 528F2252
P 9400 4750
F 0 "R17" V 9480 4750 50  0000 C CNN
F 1 "1.5K" V 9400 4750 50  0000 C CNN
	1    9400 4750
	-1   0    0    1   
$EndComp
Text Label 8950 5900 0    60   ~ 0
PD2
Text Label 8950 5800 0    60   ~ 0
PD1
Text Label 8950 5700 0    60   ~ 0
PD0
Entry Wire Line
	8800 5800 8900 5900
Entry Wire Line
	8800 5700 8900 5800
Entry Wire Line
	8800 5600 8900 5700
$Comp
L CONN_4 P8
U 1 1 52890586
P 9550 5850
F 0 "P8" V 9500 5850 50  0000 C CNN
F 1 "CONN_4" V 9600 5850 50  0000 C CNN
	1    9550 5850
	1    0    0    -1  
$EndComp
$Comp
L GND #PWR03
U 1 1 5288F169
P 8600 3850
F 0 "#PWR03" H 8600 3850 30  0001 C CNN
F 1 "GND" H 8600 3780 30  0001 C CNN
	1    8600 3850
	1    0    0    -1  
$EndComp
Text Label 8500 3300 0    60   ~ 0
USBDM
$Comp
L ESD_PROT U2
U 1 1 5288ED3D
P 9050 3750
F 0 "U2" H 8900 4000 60  0000 C CNN
F 1 "ESD_PROT" H 9050 3500 60  0000 C CNN
	1    9050 3750
	1    0    0    1   
$EndComp
$Comp
L ARM-JTAG J1
U 1 1 5288EA92
P 9250 2100
F 0 "J1" H 9250 2750 60  0000 C CNN
F 1 "ARM-JTAG" H 9250 1550 60  0000 C CNN
	1    9250 2100
	1    0    0    -1  
$EndComp
$Comp
L USB-OTG J2
U 1 1 5288E946
P 9900 3950
F 0 "J2" H 9900 4250 60  0000 C CNN
F 1 "USB-OTG" H 9900 3650 60  0000 C CNN
	1    9900 3950
	1    0    0    -1  
$EndComp
Text Label 8450 6400 0    60   ~ 0
PC15
Text Label 8450 6300 0    60   ~ 0
PC14
Text Label 8450 6200 0    60   ~ 0
PC13
Text Label 8450 6100 0    60   ~ 0
PC12
Text Label 8450 6000 0    60   ~ 0
PC11
Text Label 8450 5900 0    60   ~ 0
PC10
Text Label 8450 5800 0    60   ~ 0
PC9
Text Label 8450 5700 0    60   ~ 0
PC8
Text Label 7350 6400 0    60   ~ 0
PC7
Text Label 7350 6300 0    60   ~ 0
PC6
Text Label 7350 6200 0    60   ~ 0
PC5
Text Label 7350 6100 0    60   ~ 0
PC4
Text Label 7350 6000 0    60   ~ 0
PC3
Text Label 7350 5900 0    60   ~ 0
PC2
Text Label 7350 5800 0    60   ~ 0
PC1
Text Label 7350 5700 0    60   ~ 0
PC0
Text Label 6850 6400 0    60   ~ 0
PB15
Text Label 6850 6300 0    60   ~ 0
PB14
Text Label 6850 6200 0    60   ~ 0
PB13
Text Label 6850 6100 0    60   ~ 0
PB12
Text Label 6850 6000 0    60   ~ 0
PB11
Text Label 6850 5900 0    60   ~ 0
PB10
Text Label 6850 5800 0    60   ~ 0
PB9
Text Label 6850 5700 0    60   ~ 0
PB8
Text Label 5750 6400 0    60   ~ 0
PB7
Text Label 5750 6300 0    60   ~ 0
PB6
Text Label 5750 6200 0    60   ~ 0
PB5
Text Label 5750 6100 0    60   ~ 0
PB4
Text Label 5750 6000 0    60   ~ 0
PB3
Text Label 5750 5900 0    60   ~ 0
PB2
Text Label 5750 5800 0    60   ~ 0
PB1
Text Label 5750 5700 0    60   ~ 0
PB0
Text Label 5250 6400 0    60   ~ 0
PA15
Text Label 5250 6300 0    60   ~ 0
PA14
Text Label 5250 6200 0    60   ~ 0
PA13
Text Label 5250 6100 0    60   ~ 0
PA12
Text Label 5250 6000 0    60   ~ 0
PA11
Text Label 5250 5900 0    60   ~ 0
PA10
Text Label 5250 5800 0    60   ~ 0
PA9
Text Label 5250 5700 0    60   ~ 0
PA8
Text Label 4150 6400 0    60   ~ 0
PA7
Text Label 4150 6300 0    60   ~ 0
PA6
Text Label 4150 6200 0    60   ~ 0
PA5
Text Label 4150 6100 0    60   ~ 0
PA4
Text Label 4150 6000 0    60   ~ 0
PA3
Text Label 4150 5900 0    60   ~ 0
PA2
Text Label 4150 5800 0    60   ~ 0
PA1
Text Label 4150 5700 0    60   ~ 0
PA0
Entry Wire Line
	8700 6400 8800 6300
Entry Wire Line
	8700 6300 8800 6200
Entry Wire Line
	8700 6200 8800 6100
Entry Wire Line
	8700 6100 8800 6000
Entry Wire Line
	8700 6000 8800 5900
Entry Wire Line
	8700 5900 8800 5800
Entry Wire Line
	8700 5800 8800 5700
Entry Wire Line
	8700 5700 8800 5600
Entry Wire Line
	7200 5600 7300 5700
Entry Wire Line
	7200 5700 7300 5800
Entry Wire Line
	7200 5800 7300 5900
Entry Wire Line
	7200 5900 7300 6000
Entry Wire Line
	7200 6000 7300 6100
Entry Wire Line
	7200 6100 7300 6200
Entry Wire Line
	7200 6200 7300 6300
Entry Wire Line
	7200 6300 7300 6400
Entry Wire Line
	7100 5700 7200 5600
Entry Wire Line
	7100 5800 7200 5700
Entry Wire Line
	7100 5900 7200 5800
Entry Wire Line
	7100 6000 7200 5900
Entry Wire Line
	7100 6100 7200 6000
Entry Wire Line
	7100 6200 7200 6100
Entry Wire Line
	7100 6300 7200 6200
Entry Wire Line
	7100 6400 7200 6300
Entry Wire Line
	5500 6400 5600 6300
Entry Wire Line
	5500 6300 5600 6200
Entry Wire Line
	5500 6200 5600 6100
Entry Wire Line
	5500 6100 5600 6000
Entry Wire Line
	5500 6000 5600 5900
Entry Wire Line
	5500 5900 5600 5800
Entry Wire Line
	5500 5800 5600 5700
Entry Wire Line
	5600 6300 5700 6400
Entry Wire Line
	5600 6200 5700 6300
Entry Wire Line
	5600 6100 5700 6200
Entry Wire Line
	5600 6000 5700 6100
Entry Wire Line
	5600 5900 5700 6000
Entry Wire Line
	5600 5800 5700 5900
Entry Wire Line
	5600 5700 5700 5800
Entry Wire Line
	5600 5600 5700 5700
Entry Wire Line
	5500 5700 5600 5600
Entry Wire Line
	4000 6300 4100 6400
Entry Wire Line
	4000 6200 4100 6300
Entry Wire Line
	4000 6100 4100 6200
Entry Wire Line
	4000 6000 4100 6100
Entry Wire Line
	4000 5900 4100 6000
Entry Wire Line
	4000 5800 4100 5900
Entry Wire Line
	4000 5700 4100 5800
Entry Wire Line
	4000 5600 4100 5700
Entry Bus Bus
	4000 5500 4100 5400
Entry Bus Bus
	10300 5400 10400 5300
$Comp
L CONN_8X2 P7
U 1 1 52836EB3
P 8000 6050
F 0 "P7" H 8000 6500 60  0000 C CNN
F 1 "PC" V 8000 6050 50  0000 C CNN
	1    8000 6050
	1    0    0    -1  
$EndComp
$Comp
L CONN_8X2 P5
U 1 1 52836EA6
P 6400 6050
F 0 "P5" H 6400 6500 60  0000 C CNN
F 1 "PB" V 6400 6050 50  0000 C CNN
	1    6400 6050
	1    0    0    -1  
$EndComp
$Comp
L CONN_8X2 P4
U 1 1 52836E75
P 4800 6050
F 0 "P4" H 4800 6500 60  0000 C CNN
F 1 "PA" V 4800 6050 50  0000 C CNN
	1    4800 6050
	1    0    0    -1  
$EndComp
$Comp
L GND #PWR04
U 1 1 52836DE4
P 2850 6600
F 0 "#PWR04" H 2850 6600 30  0001 C CNN
F 1 "GND" H 2850 6530 30  0001 C CNN
	1    2850 6600
	1    0    0    -1  
$EndComp
$Comp
L CP1 C15
U 1 1 52836D8A
P 3000 6200
F 0 "C15" H 3050 6300 50  0000 L CNN
F 1 "10uF/6.3V" H 3050 6100 50  0000 L CNN
	1    3000 6200
	1    0    0    -1  
$EndComp
$Comp
L C C13
U 1 1 52836D6F
P 2700 6200
F 0 "C13" H 2750 6300 50  0000 L CNN
F 1 "100n" H 2750 6100 50  0000 L CNN
	1    2700 6200
	1    0    0    -1  
$EndComp
$Comp
L VDD #PWR05
U 1 1 52836D60
P 2500 5800
F 0 "#PWR05" H 2500 5900 30  0001 C CNN
F 1 "VDD" H 2500 5910 30  0000 C CNN
	1    2500 5800
	1    0    0    -1  
$EndComp
$Comp
L GND #PWR06
U 1 1 52836CE8
P 950 6600
F 0 "#PWR06" H 950 6600 30  0001 C CNN
F 1 "GND" H 950 6530 30  0001 C CNN
	1    950  6600
	1    0    0    -1  
$EndComp
$Comp
L R R4
U 1 1 52836CBA
P 2150 6500
F 0 "R4" V 2230 6500 50  0000 C CNN
F 1 "240R" V 2150 6500 50  0000 C CNN
	1    2150 6500
	0    1    -1   0   
$EndComp
$Comp
L R R2
U 1 1 52836CA8
P 1450 6500
F 0 "R2" V 1530 6500 50  0000 C CNN
F 1 "390R" V 1450 6500 50  0000 C CNN
	1    1450 6500
	0    -1   -1   0   
$EndComp
$Comp
L VCC #PWR07
U 1 1 52836C8F
P 800 5800
F 0 "#PWR07" H 800 5900 30  0001 C CNN
F 1 "VCC" H 800 5900 30  0000 C CNN
	1    800  5800
	1    0    0    -1  
$EndComp
$Comp
L C C2
U 1 1 52836C66
P 800 6200
F 0 "C2" H 850 6300 50  0000 L CNN
F 1 "100n" H 850 6100 50  0000 L CNN
	1    800  6200
	-1   0    0    -1  
$EndComp
$Comp
L CP1 C3
U 1 1 52836C5A
P 1100 6200
F 0 "C3" H 1150 6300 50  0000 L CNN
F 1 "10uF/16V" H 1150 6100 50  0000 L CNN
	1    1100 6200
	1    0    0    -1  
$EndComp
$Comp
L CP1 C6
U 1 1 52836C2C
P 1350 5100
F 0 "C6" H 1400 5200 50  0000 L CNN
F 1 "10uF/6.3V" H 1400 5000 50  0000 L CNN
	1    1350 5100
	-1   0    0    -1  
$EndComp
$Comp
L LM317_SOT223 U1
U 1 1 52836BEB
P 1800 6050
F 0 "U1" H 1800 6350 60  0000 C CNN
F 1 "LM1117" H 1850 5800 60  0000 L CNN
	1    1800 6050
	1    0    0    -1  
$EndComp
$Comp
L CONN_2X2 P6
U 1 1 528369AC
P 7900 4450
F 0 "P6" H 7900 4600 50  0000 C CNN
F 1 "USB_SW" H 7910 4320 40  0000 C CNN
	1    7900 4450
	1    0    0    1   
$EndComp
Text Label 9150 4200 0    60   ~ 0
USBDP
Text Label 7300 4500 0    60   ~ 0
PA11
Text Label 7300 4400 0    60   ~ 0
PA12
Entry Wire Line
	7200 4400 7300 4500
Entry Wire Line
	7200 4300 7300 4400
$Comp
L C C17
U 1 1 528367DB
P 8700 4800
F 0 "C17" H 8750 4900 50  0000 L CNN
F 1 "47pF" H 8750 4700 50  0000 L CNN
	1    8700 4800
	1    0    0    -1  
$EndComp
$Comp
L VCC #PWR08
U 1 1 5283678D
P 9600 3650
F 0 "#PWR08" H 9600 3750 30  0001 C CNN
F 1 "VCC" H 9600 3750 30  0000 C CNN
	1    9600 3650
	1    0    0    -1  
$EndComp
$Comp
L GND #PWR09
U 1 1 5283677D
P 8550 5200
F 0 "#PWR09" H 8550 5200 30  0001 C CNN
F 1 "GND" H 8550 5130 30  0001 C CNN
	1    8550 5200
	1    0    0    -1  
$EndComp
$Comp
L GND #PWR010
U 1 1 5283677A
P 9600 4500
F 0 "#PWR010" H 9600 4500 30  0001 C CNN
F 1 "GND" H 9600 4430 30  0001 C CNN
	1    9600 4500
	1    0    0    -1  
$EndComp
Entry Bus Bus
	10300 700  10400 800 
Entry Bus Bus
	7200 800  7300 700 
$Comp
L C C16
U 1 1 5283664D
P 8400 4800
F 0 "C16" H 8450 4900 50  0000 L CNN
F 1 "47pF" H 8450 4700 50  0000 L CNN
	1    8400 4800
	-1   0    0    -1  
$EndComp
$Comp
L R R16
U 1 1 5283660B
P 9050 4400
F 0 "R16" V 9130 4400 50  0000 C CNN
F 1 "22R" V 9050 4400 50  0000 C CNN
	1    9050 4400
	0    1    -1   0   
$EndComp
$Comp
L R R15
U 1 1 528365F3
P 8400 3900
F 0 "R15" V 8480 3900 50  0000 C CNN
F 1 "22R" V 8400 3900 50  0000 C CNN
	1    8400 3900
	-1   0    0    1   
$EndComp
Text Label 2550 3700 0    60   ~ 0
RST
Entry Wire Line
	2700 3700 2800 3600
Text Label 2900 3700 0    60   ~ 0
RST
Entry Wire Line
	2800 3600 2900 3700
Text Label 7350 2300 0    60   ~ 0
RST
Text Label 7350 2200 0    60   ~ 0
PB3
Text Label 7350 2000 0    60   ~ 0
PA14
Text Label 7350 1900 0    60   ~ 0
PA13
Text Label 8450 2300 0    60   ~ 0
RST
Text Label 8450 2200 0    60   ~ 0
TDO
Text Label 8450 2000 0    60   ~ 0
TCK
Text Label 8450 1900 0    60   ~ 0
TMS
Text Label 8450 1800 0    60   ~ 0
TDI
Text Label 8450 1700 0    60   ~ 0
TRST
Text Label 7350 1800 0    60   ~ 0
PA15
Text Label 7350 1700 0    60   ~ 0
PB4
$Comp
L GND #PWR011
U 1 1 52834024
P 8000 3300
F 0 "#PWR011" H 8000 3300 30  0001 C CNN
F 1 "GND" H 8000 3230 30  0001 C CNN
	1    8000 3300
	1    0    0    -1  
$EndComp
$Comp
L R R10
U 1 1 52834007
P 7800 2850
F 0 "R10" V 7880 2850 50  0000 C CNN
F 1 "10K" V 7800 2850 50  0000 C CNN
	1    7800 2850
	-1   0    0    1   
$EndComp
$Comp
L R R12
U 1 1 52834001
P 8000 2850
F 0 "R12" V 8080 2850 50  0000 C CNN
F 1 "10K" V 8000 2850 50  0000 C CNN
	1    8000 2850
	-1   0    0    1   
$EndComp
$Comp
L R R14
U 1 1 52833FE5
P 8200 2850
F 0 "R14" V 8280 2850 50  0000 C CNN
F 1 "10K" V 8200 2850 50  0000 C CNN
	1    8200 2850
	-1   0    0    1   
$EndComp
$Comp
L VDD #PWR012
U 1 1 52833FBF
P 8000 900
F 0 "#PWR012" H 8000 1000 30  0001 C CNN
F 1 "VDD" H 8000 1010 30  0000 C CNN
	1    8000 900 
	1    0    0    -1  
$EndComp
$Comp
L R R7
U 1 1 52833F4D
P 7600 1350
F 0 "R7" V 7680 1350 50  0000 C CNN
F 1 "10K" V 7600 1350 50  0000 C CNN
	1    7600 1350
	-1   0    0    1   
$EndComp
$Comp
L R R8
U 1 1 52833F48
P 7800 1350
F 0 "R8" V 7880 1350 50  0000 C CNN
F 1 "10K" V 7800 1350 50  0000 C CNN
	1    7800 1350
	-1   0    0    1   
$EndComp
$Comp
L R R9
U 1 1 52833F43
P 8000 1350
F 0 "R9" V 8080 1350 50  0000 C CNN
F 1 "10K" V 8000 1350 50  0000 C CNN
	1    8000 1350
	-1   0    0    1   
$EndComp
$Comp
L R R11
U 1 1 52833F3D
P 8200 1350
F 0 "R11" V 8280 1350 50  0000 C CNN
F 1 "10K" V 8200 1350 50  0000 C CNN
	1    8200 1350
	-1   0    0    1   
$EndComp
$Comp
L R R13
U 1 1 52833F24
P 8400 1350
F 0 "R13" V 8480 1350 50  0000 C CNN
F 1 "10K" V 8400 1350 50  0000 C CNN
	1    8400 1350
	-1   0    0    1   
$EndComp
Entry Wire Line
	7200 2200 7300 2300
Entry Wire Line
	7200 2100 7300 2200
Entry Wire Line
	7200 1900 7300 2000
Entry Wire Line
	7200 1800 7300 1900
Entry Wire Line
	7200 1600 7300 1700
Entry Wire Line
	7200 1700 7300 1800
$Comp
L GND #PWR013
U 1 1 52833EBB
P 9900 2600
F 0 "#PWR013" H 9900 2600 30  0001 C CNN
F 1 "GND" H 9900 2530 30  0001 C CNN
	1    9900 2600
	1    0    0    -1  
$EndComp
$Comp
L VDD #PWR014
U 1 1 52833E83
P 9900 900
F 0 "#PWR014" H 9900 1000 30  0001 C CNN
F 1 "VDD" H 9900 1010 30  0000 C CNN
	1    9900 900 
	1    0    0    -1  
$EndComp
$Comp
L GND #PWR015
U 1 1 52833CB3
P 4800 1300
F 0 "#PWR015" H 4800 1300 30  0001 C CNN
F 1 "GND" H 4800 1230 30  0001 C CNN
	1    4800 1300
	1    0    0    -1  
$EndComp
$Comp
L CONN_3 K2
U 1 1 52833CB2
P 4350 1100
F 0 "K2" V 4300 1100 50  0000 C CNN
F 1 "BOOT1" V 4400 1100 40  0000 C CNN
	1    4350 1100
	-1   0    0    1   
$EndComp
$Comp
L VDD #PWR016
U 1 1 52833CB1
P 4800 900
F 0 "#PWR016" H 4800 1000 30  0001 C CNN
F 1 "VDD" H 4800 1010 30  0000 C CNN
	1    4800 900 
	1    0    0    -1  
$EndComp
$Comp
L R R6
U 1 1 52833CB0
P 5050 1100
F 0 "R6" V 5130 1100 50  0000 C CNN
F 1 "33K" V 5050 1100 50  0000 C CNN
	1    5050 1100
	0    -1   -1   0   
$EndComp
Entry Wire Line
	5300 700  5400 800 
Text Label 5400 800  0    60   ~ 0
PB2
Text Label 4100 800  0    60   ~ 0
BOOT0
Entry Wire Line
	4000 700  4100 800 
$Comp
L R R5
U 1 1 52833C49
P 3750 1100
F 0 "R5" V 3830 1100 50  0000 C CNN
F 1 "33K" V 3750 1100 50  0000 C CNN
	1    3750 1100
	0    -1   -1   0   
$EndComp
$Comp
L VDD #PWR017
U 1 1 52833C25
P 3500 900
F 0 "#PWR017" H 3500 1000 30  0001 C CNN
F 1 "VDD" H 3500 1010 30  0000 C CNN
	1    3500 900 
	1    0    0    -1  
$EndComp
$Comp
L CONN_3 K1
U 1 1 52833C15
P 3050 1100
F 0 "K1" V 3000 1100 50  0000 C CNN
F 1 "BOOT0" V 3100 1100 40  0000 C CNN
	1    3050 1100
	-1   0    0    1   
$EndComp
$Comp
L GND #PWR018
U 1 1 52833C07
P 3500 1300
F 0 "#PWR018" H 3500 1300 30  0001 C CNN
F 1 "GND" H 3500 1230 30  0001 C CNN
	1    3500 1300
	1    0    0    -1  
$EndComp
Text Label 6850 4800 0    60   ~ 0
PB15
Text Label 6850 4700 0    60   ~ 0
PB14
Text Label 6850 4600 0    60   ~ 0
PB13
Text Label 6850 4500 0    60   ~ 0
PB12
Text Label 6850 4400 0    60   ~ 0
PB11
Text Label 6850 4300 0    60   ~ 0
PB10
Text Label 6850 4200 0    60   ~ 0
PB9
Text Label 6850 4100 0    60   ~ 0
PB8
Text Label 6850 4000 0    60   ~ 0
PB7
Text Label 6850 3900 0    60   ~ 0
PB6
Text Label 6850 3800 0    60   ~ 0
PB5
Text Label 6850 3700 0    60   ~ 0
PB4
Text Label 6850 3600 0    60   ~ 0
PB3
Text Label 6850 3500 0    60   ~ 0
PB2
Text Label 6850 3400 0    60   ~ 0
PB1
Text Label 6850 3300 0    60   ~ 0
PB0
Text Label 6850 3100 0    60   ~ 0
PC15
Text Label 6850 3000 0    60   ~ 0
PC14
Text Label 6850 2900 0    60   ~ 0
PC13
Text Label 6850 2800 0    60   ~ 0
PC12
Text Label 6850 2700 0    60   ~ 0
PC11
Text Label 6850 2600 0    60   ~ 0
PC10
Text Label 6850 2500 0    60   ~ 0
PC9
Text Label 6850 2400 0    60   ~ 0
PC8
Text Label 6850 2300 0    60   ~ 0
PC7
Text Label 6850 2200 0    60   ~ 0
PC6
Text Label 6850 2100 0    60   ~ 0
PC5
Text Label 6850 2000 0    60   ~ 0
PC4
Text Label 6850 1900 0    60   ~ 0
PC3
Text Label 6850 1800 0    60   ~ 0
PC2
Text Label 6850 1700 0    60   ~ 0
PC1
Text Label 6850 1600 0    60   ~ 0
PC0
Text Label 2500 1100 0    60   ~ 0
PC15
Text Label 2500 1200 0    60   ~ 0
PC14
Entry Bus Bus
	7100 700  7200 800 
Entry Wire Line
	7100 4800 7200 4700
Entry Wire Line
	7100 4700 7200 4600
Entry Wire Line
	7100 4600 7200 4500
Entry Wire Line
	7100 4500 7200 4400
Entry Wire Line
	7100 4400 7200 4300
Entry Wire Line
	7100 4300 7200 4200
Entry Wire Line
	7100 4200 7200 4100
Entry Wire Line
	7100 4100 7200 4000
Entry Wire Line
	7100 4000 7200 3900
Entry Wire Line
	7100 3900 7200 3800
Entry Wire Line
	7100 3800 7200 3700
Entry Wire Line
	7100 3700 7200 3600
Entry Wire Line
	7100 3600 7200 3500
Entry Wire Line
	7100 3500 7200 3400
Entry Wire Line
	7100 3400 7200 3300
Entry Wire Line
	7100 3300 7200 3200
Entry Wire Line
	7100 3100 7200 3000
Entry Wire Line
	7100 3000 7200 2900
Entry Wire Line
	7100 2900 7200 2800
Entry Wire Line
	7100 2800 7200 2700
Entry Wire Line
	7100 2700 7200 2600
Entry Wire Line
	7100 2600 7200 2500
Entry Wire Line
	7100 2500 7200 2400
Entry Wire Line
	7100 2400 7200 2300
Entry Wire Line
	7100 2300 7200 2200
Entry Wire Line
	7100 2200 7200 2100
Entry Wire Line
	7100 2100 7200 2000
Entry Wire Line
	7100 2000 7200 1900
Entry Wire Line
	7100 1900 7200 1800
Entry Wire Line
	7100 1800 7200 1700
Entry Wire Line
	7100 1700 7200 1600
Entry Wire Line
	7100 1600 7200 1500
Entry Wire Line
	2700 1200 2800 1100
Entry Wire Line
	2700 1100 2800 1000
$Comp
L CONN_2X2 P1
U 1 1 5283344B
P 1950 1150
F 0 "P1" H 1950 1300 50  0000 C CNN
F 1 "RT_QZ" H 1960 1020 40  0000 C CNN
	1    1950 1150
	1    0    0    -1  
$EndComp
$Comp
L GND #PWR019
U 1 1 528333E2
P 1750 2100
F 0 "#PWR019" H 1750 2100 30  0001 C CNN
F 1 "GND" H 1750 2030 30  0001 C CNN
	1    1750 2100
	1    0    0    -1  
$EndComp
$Comp
L C C9
U 1 1 528333BC
P 2300 1700
F 0 "C9" H 2350 1800 50  0000 L CNN
F 1 "10pF" H 2350 1600 50  0000 L CNN
	1    2300 1700
	1    0    0    -1  
$EndComp
$Comp
L CRYSTAL X1
U 1 1 528333B2
P 1750 1700
F 0 "X1" H 1750 1850 60  0000 C CNN
F 1 "32768Hz" H 1750 1550 60  0000 C CNN
	1    1750 1700
	1    0    0    -1  
$EndComp
$Comp
L C C4
U 1 1 528333A6
P 1200 1700
F 0 "C4" H 1250 1800 50  0000 L CNN
F 1 "10pF" H 1250 1600 50  0000 L CNN
	1    1200 1700
	-1   0    0    -1  
$EndComp
Text Label 2500 2300 0    60   ~ 0
PD1
Text Label 2500 2400 0    60   ~ 0
PD0
Text Label 2900 3100 0    60   ~ 0
PA15
Text Label 2900 3000 0    60   ~ 0
PA14
Text Label 2900 2900 0    60   ~ 0
PA13
Text Label 2900 2800 0    60   ~ 0
PA12
Text Label 2900 2700 0    60   ~ 0
PA11
Text Label 2900 2600 0    60   ~ 0
PA10
Text Label 2900 2500 0    60   ~ 0
PA9
Text Label 2900 2400 0    60   ~ 0
PA8
Text Label 2900 2300 0    60   ~ 0
PA7
Text Label 2900 2200 0    60   ~ 0
PA6
Text Label 2900 2100 0    60   ~ 0
PA5
Text Label 2900 2000 0    60   ~ 0
PA4
Text Label 2900 1900 0    60   ~ 0
PA3
Text Label 2900 1800 0    60   ~ 0
PA2
Text Label 2900 1700 0    60   ~ 0
PA1
Text Label 2900 1600 0    60   ~ 0
PA0
Text Label 2900 3600 0    60   ~ 0
BOOT0
Text Label 2900 3500 0    60   ~ 0
PD2
Text Label 2900 3400 0    60   ~ 0
PD1
Text Label 2900 3300 0    60   ~ 0
PD0
Entry Wire Line
	2800 3200 2900 3300
Entry Wire Line
	2800 3300 2900 3400
Entry Wire Line
	2700 2400 2800 2300
Entry Wire Line
	2700 2300 2800 2200
Entry Wire Line
	2800 1500 2900 1600
Entry Wire Line
	2800 1600 2900 1700
Entry Wire Line
	2800 1700 2900 1800
Entry Wire Line
	2800 1800 2900 1900
Entry Wire Line
	2800 1900 2900 2000
Entry Wire Line
	2800 2000 2900 2100
Entry Wire Line
	2800 2100 2900 2200
Entry Wire Line
	2800 2200 2900 2300
Entry Wire Line
	2800 2300 2900 2400
Entry Wire Line
	2800 2400 2900 2500
Entry Wire Line
	2800 2500 2900 2600
Entry Wire Line
	2800 2600 2900 2700
Entry Wire Line
	2800 2700 2900 2800
Entry Wire Line
	2800 2800 2900 2900
Entry Wire Line
	2800 2900 2900 3000
Entry Wire Line
	2800 3000 2900 3100
Entry Wire Line
	2800 3400 2900 3500
Entry Wire Line
	2800 3500 2900 3600
$Comp
L CONN_2X2 P2
U 1 1 5283318B
P 1950 2350
F 0 "P2" H 1950 2500 50  0000 C CNN
F 1 "SC_QZ" H 1960 2220 40  0000 C CNN
	1    1950 2350
	1    0    0    -1  
$EndComp
Entry Bus Bus
	2800 800  2900 700 
$Comp
L GND #PWR020
U 1 1 52832BAC
P 1750 3500
F 0 "#PWR020" H 1750 3500 30  0001 C CNN
F 1 "GND" H 1750 3430 30  0001 C CNN
	1    1750 3500
	1    0    0    -1  
$EndComp
$Comp
L C C5
U 1 1 52832B38
P 1200 3100
F 0 "C5" H 1250 3200 50  0000 L CNN
F 1 "27pF" H 1250 3000 50  0000 L CNN
	1    1200 3100
	-1   0    0    -1  
$EndComp
$Comp
L R R3
U 1 1 52832AFF
P 1750 2800
F 0 "R3" V 1830 2800 50  0000 C CNN
F 1 "1M" V 1750 2800 50  0000 C CNN
	1    1750 2800
	0    -1   -1   0   
$EndComp
$Comp
L C C10
U 1 1 52832AE0
P 2300 3100
F 0 "C10" H 2350 3200 50  0000 L CNN
F 1 "27pF" H 2350 3000 50  0000 L CNN
	1    2300 3100
	1    0    0    -1  
$EndComp
$Comp
L CRYSTAL X2
U 1 1 52832AC1
P 1750 3100
F 0 "X2" H 1750 3250 60  0000 C CNN
F 1 "8MHz" H 1750 2950 60  0000 C CNN
	1    1750 3100
	-1   0    0    1   
$EndComp
$Comp
L SW_PUSH_SMALL SW1
U 1 1 528329D3
P 1100 4000
F 0 "SW1" H 1250 4110 30  0000 C CNN
F 1 "RESET" H 1100 3921 30  0000 C CNN
	1    1100 4000
	1    0    0    -1  
$EndComp
$Comp
L GND #PWR021
U 1 1 5283297D
P 800 4400
F 0 "#PWR021" H 800 4400 30  0001 C CNN
F 1 "GND" H 800 4330 30  0001 C CNN
	1    800  4400
	1    0    0    -1  
$EndComp
$Comp
L R R1
U 1 1 52832974
P 800 3350
F 0 "R1" V 880 3350 50  0000 C CNN
F 1 "10K" V 800 3350 50  0000 C CNN
	1    800  3350
	-1   0    0    1   
$EndComp
$Comp
L C C1
U 1 1 52832957
P 800 4000
F 0 "C1" H 850 4100 50  0000 L CNN
F 1 "100n" H 850 3900 50  0000 L CNN
	1    800  4000
	-1   0    0    -1  
$EndComp
$Comp
L VDD #PWR022
U 1 1 5283285D
P 800 3000
F 0 "#PWR022" H 800 3100 30  0001 C CNN
F 1 "VDD" H 800 3110 30  0000 C CNN
	1    800  3000
	1    0    0    -1  
$EndComp
$Comp
L VDD #PWR023
U 1 1 52832650
P 1500 3900
F 0 "#PWR023" H 1500 4000 30  0001 C CNN
F 1 "VDD" H 1500 4010 30  0000 C CNN
	1    1500 3900
	1    0    0    -1  
$EndComp
$Comp
L FILTER FB1
U 1 1 5283263D
P 1500 4350
F 0 "FB1" H 1500 4500 60  0000 C CNN
F 1 "FILTER" H 1500 4250 60  0000 C CNN
	1    1500 4350
	0    -1   -1   0   
$EndComp
$Comp
L GND #PWR024
U 1 1 528325DD
P 1500 5500
F 0 "#PWR024" H 1500 5500 30  0001 C CNN
F 1 "GND" H 1500 5430 30  0001 C CNN
	1    1500 5500
	1    0    0    -1  
$EndComp
$Comp
L C C7
U 1 1 52832558
P 1650 5100
F 0 "C7" H 1700 5200 50  0000 L CNN
F 1 "100n" H 1700 5000 50  0000 L CNN
	1    1650 5100
	-1   0    0    -1  
$EndComp
$Comp
L CONN_2 P3
U 1 1 528324E6
P 2350 4300
F 0 "P3" V 2300 4300 40  0000 C CNN
F 1 "BAT_SW" V 2400 4300 40  0000 C CNN
	1    2350 4300
	-1   0    0    -1  
$EndComp
$Comp
L VDD #PWR025
U 1 1 52832419
P 2450 4700
F 0 "#PWR025" H 2450 4800 30  0001 C CNN
F 1 "VDD" H 2450 4810 30  0000 C CNN
	1    2450 4700
	1    0    0    -1  
$EndComp
$Comp
L GND #PWR026
U 1 1 528323EC
P 2450 5500
F 0 "#PWR026" H 2450 5500 30  0001 C CNN
F 1 "GND" H 2450 5430 30  0001 C CNN
	1    2450 5500
	1    0    0    -1  
$EndComp
$Comp
L C C8
U 1 1 528323CD
P 2000 5100
F 0 "C8" H 2050 5200 50  0000 L CNN
F 1 "100n" H 2050 5000 50  0000 L CNN
	1    2000 5100
	-1   0    0    -1  
$EndComp
$Comp
L C C11
U 1 1 528323CB
P 2300 5100
F 0 "C11" H 2350 5200 50  0000 L CNN
F 1 "100n" H 2350 5000 50  0000 L CNN
	1    2300 5100
	-1   0    0    -1  
$EndComp
$Comp
L C C12
U 1 1 528323BF
P 2600 5100
F 0 "C12" H 2650 5200 50  0000 L CNN
F 1 "100n" H 2650 5000 50  0000 L CNN
	1    2600 5100
	-1   0    0    -1  
$EndComp
$Comp
L C C14
U 1 1 52832399
P 2900 5100
F 0 "C14" H 2950 5200 50  0000 L CNN
F 1 "100n" H 2950 5000 50  0000 L CNN
	1    2900 5100
	-1   0    0    -1  
$EndComp
$Comp
L GND #PWR027
U 1 1 52832371
P 3100 4900
F 0 "#PWR027" H 3100 4900 30  0001 C CNN
F 1 "GND" H 3100 4830 30  0001 C CNN
	1    3100 4900
	1    0    0    -1  
$EndComp
$Comp
L STM32F103_LQFP64 D1
U 1 1 5283228B
P 5000 3200
F 0 "D1" H 5000 5000 60  0000 C CNN
F 1 "STM32F103_LQFP64" H 5000 1400 60  0000 C CNN
	1    5000 3200
	1    0    0    -1  
$EndComp
$EndSCHEMATC
